…
### Comparison between models

``` r
cv_df = 
  crossv_mc(data_birthweight, 10) 


cv_df %>% pull(train) %>% .[[1]] %>% as_tibble
```

    ## # A tibble: 3,473 x 20
    ##    babysex bhead blength   bwt delwt fincome frace gaweeks malform menarche
    ##  * <fct>   <int>   <int> <int> <int>   <int> <fct>   <dbl> <fct>      <int>
    ##  1 2          34      51  3629   177      35 1        39.9 0             13
    ##  2 2          36      50  3345   148      85 1        39.9 0             12
    ##  3 1          34      52  3062   157      55 1        40   0             14
    ##  4 2          34      52  3374   156       5 1        41.6 0             13
    ##  5 1          33      52  3374   129      55 1        40.7 0             12
    ##  6 2          33      46  2523   126      96 2        40.3 0             14
    ##  7 1          36      52  3515   146      85 1        40.3 0             11
    ##  8 1          33      50  3459   169      75 2        40.7 0             12
    ##  9 2          35      51  3317   130      55 1        43.4 0             13
    ## 10 1          35      51  3459   146      55 1        39.4 0             12
    ## # ... with 3,463 more rows, and 10 more variables: mheight <int>,
    ## #   momage <int>, mrace <fct>, parity <int>, pnumlbw <int>, pnumsga <int>,
    ## #   ppbmi <dbl>, ppwt <int>, smoken <dbl>, wtgain <int>
…
